;FFMETADATA1
major_brand=qt  
minor_version=0
compatible_brands=qt  
make-eng=Apple
encoder=8.0.2
encoder-eng=8.0.2
date=2014-10-04T14:18:22-0400
date-eng=2014-10-04T14:18:22-0400
location=+40.7479-073.9555+014.505/
location-eng=+40.7479-073.9555+014.505/
model=iPhone 5s
model-eng=iPhone 5s
make=Apple
