<?xml version="1.0" standalone="no"?>
<!DOCTYPE svg PUBLIC "-//W3C//DTD SVG 1.1//EN" "http://www.w3.org/Graphics/SVG/1.1/DTD/svg11.dtd" >
<svg xmlns="http://www.w3.org/2000/svg">
<metadata>Generated by IcoMoon</metadata>
<defs>
<font id="starsitefont" horiz-adv-x="1024">
<font-face units-per-em="1024" ascent="960" descent="-64" />
<missing-glyph horiz-adv-x="1024" />
<glyph unicode="&#x20;" horiz-adv-x="512" d="" />
<glyph unicode="&#x53;" glyph-name="icomoon2718" horiz-adv-x="926" d="M472.281-59.666c62.996 8.642 113.521 23.688 166.199 49.494 149.126 73.077 252.901 212.897 278.22 374.858 10.629 67.981 11.177 84.201 4.512 134.823-9.22 70.015-22.298 115.434-49.158 170.593-35.252 72.411-87.068 135.921-148.925 182.545-87.294 65.799-183.88 99.786-302.018 106.299l-19.26 1.054v-93.51l124.654-251.459 137.432-19.593c75.584-10.772 138.18-20.24 139.105-21.035 0.925-0.784-28.12-30.096-64.531-65.122-36.424-35.038-81.642-78.558-100.49-96.71l-34.27-33.018 10.211-59.438c5.621-32.685 13.235-76.761 16.93-97.962 15.81-90.67 19.69-113.519 19.69-116.163 0-1.665-9.179 2.149-22.56 9.361-12.415 6.686-68.38 36.028-124.362 65.194l-101.805 53.043v272.387c0 149.805-0.671 290.531-1.467 312.724l-1.458 40.348-61.149-122.271c-60.195-120.4-61.248-122.293-68.419-123.614-4.009-0.743-66.099-9.738-137.982-19.992-71.883-10.252-130.999-19.676-131.37-19.313-0.369 0.366 44.332-44.153 99.332-97.293 55-53.137 100-97.623 100-98.87 0-1.238-9.996-59.771-22.202-130.072-26.981-155.289-25.594-146.11-21.63-143.004 2.529 1.976 238.563 125.675 244.575 128.17 0.974 0.407 1.777-66.207 1.777-148.033v-148.765l21.448 0.283c11.801 0.168 33.838 1.984 48.971 4.058v0z" />
<glyph unicode="&#x66;" glyph-name="facebook-with-circle" d="M512 952.32c-271.462 0-491.52-220.058-491.52-491.52s220.058-491.52 491.52-491.52 491.52 220.058 491.52 491.52-220.058 491.52-491.52 491.52zM628.429 612.659h-73.882c-8.755 0-18.483-11.52-18.483-26.829v-53.35h92.416l-13.978-76.083h-78.438v-228.403h-87.194v228.403h-79.104v76.083h79.104v44.749c0 64.205 44.544 116.378 105.677 116.378h73.882v-80.947z" />
<glyph unicode="&#x67;" glyph-name="google-with-circle" d="M512 952.32c-271.462 0-491.52-220.058-491.52-491.52s220.058-491.52 491.52-491.52 491.52 220.058 491.52 491.52-220.058 491.52-491.52 491.52zM483.686 249.805c-30.874-15.002-64.102-16.589-76.954-16.589-2.458 0-3.84 0-3.84 0s-1.178 0-2.765 0c-20.070 0-119.962 4.608-119.962 95.59 0 89.395 108.8 96.41 142.131 96.41h0.87c-19.251 25.702-15.258 51.61-15.258 51.61-1.69-0.102-4.147-0.205-7.168-0.205-12.544 0-36.762 1.997-57.549 15.411-25.498 16.384-38.4 44.288-38.4 82.893 0 109.107 119.142 113.51 120.32 113.613h118.989v-2.611c0-13.312-23.91-15.923-40.192-18.125-5.53-0.819-16.64-1.894-19.763-3.482 30.157-16.128 35.021-41.421 35.021-79.104 0-42.906-16.794-65.587-34.611-81.51-11.059-9.882-19.712-17.613-19.712-28.006 0-10.189 11.878-20.582 25.702-32.717 22.579-19.917 53.555-47.002 53.555-92.723 0-47.258-20.326-81.050-60.416-100.454zM742.4 460.8h-76.8v-76.8h-51.2v76.8h-76.8v51.2h76.8v76.8h51.2v-76.8h76.8v-51.2zM421.018 401.92c-2.662 0-5.325-0.102-8.038-0.307-22.733-1.69-43.725-10.189-58.88-24.013-15.053-13.619-22.733-30.822-21.658-48.179 2.304-36.403 41.37-57.702 88.832-54.323 46.694 3.379 77.824 30.31 75.571 66.714-2.15 34.202-31.898 60.109-75.827 60.109zM465.766 599.808c-12.39 43.52-32.358 56.422-63.386 56.422-3.328 0-6.707-0.512-9.933-1.382-13.466-3.84-24.166-15.053-30.106-31.744-6.093-16.896-6.451-34.509-1.229-54.579 9.472-35.891 34.97-61.901 60.672-61.901 3.379 0 6.758 0.41 9.933 1.382 28.109 7.885 45.722 50.79 34.048 91.802z" />
<glyph unicode="&#x74;" glyph-name="twitter-with-circle" d="M512 952.32c-271.462 0-491.52-220.058-491.52-491.52s220.058-491.52 491.52-491.52 491.52 220.058 491.52 491.52-220.058 491.52-491.52 491.52zM711.936 549.683c0.205-4.198 0.256-8.397 0.256-12.493 0-128-97.331-275.507-275.405-275.507-54.682 0-105.574 15.974-148.378 43.52 7.526-0.922 15.258-1.28 23.091-1.28 45.363 0 87.091 15.411 120.218 41.421-42.342 0.819-78.080 28.774-90.419 67.174 5.888-1.075 11.93-1.69 18.176-1.69 8.806 0 17.408 1.178 25.498 3.379-44.288 8.909-77.67 48.026-77.67 94.925v1.178c13.056-7.219 28.006-11.622 43.878-12.134-26.010 17.408-43.059 47.002-43.059 80.64 0 17.715 4.762 34.406 13.107 48.691 47.77-58.573 119.040-97.075 199.526-101.222-1.69 7.117-2.509 14.49-2.509 22.118 0 53.402 43.315 96.819 96.819 96.819 27.802 0 52.992-11.776 70.656-30.618 22.067 4.403 42.752 12.39 61.44 23.501-7.219-22.579-22.528-41.574-42.547-53.606 19.61 2.406 38.246 7.578 55.603 15.309-12.954-19.405-29.389-36.506-48.282-50.125z" />
<glyph unicode="&#x75;" glyph-name="tumblr-with-circle" d="M512 952.32c-271.462 0-491.52-220.058-491.52-491.52s220.058-491.52 491.52-491.52 491.52 220.058 491.52 491.52-220.058 491.52-491.52 491.52zM643.942 248.781c-20.122-9.626-38.298-16.282-54.579-20.224-16.282-3.789-33.894-5.786-52.787-5.786-21.504 0-40.499 2.816-57.037 8.294s-30.618 13.312-42.291 23.501c-11.674 10.086-19.763 20.992-24.269 32.41-4.506 11.52-6.758 28.109-6.758 49.818v167.014h-52.019v67.277c18.381 6.093 34.304 14.797 47.462 26.214 13.158 11.315 23.757 24.883 31.693 40.806 7.987 15.872 13.466 36.198 16.486 60.672h66.918v-120.32h111.616v-74.65h-111.616v-122.112c0-27.597 1.434-45.312 4.352-53.094 2.867-7.885 8.243-14.080 16.128-18.79 10.445-6.298 22.374-9.472 35.686-9.472 23.859 0 47.514 7.885 71.066 23.603v-75.162z" />
</font></defs></svg>